{
  "type": "root",
  "id": "root",
  "linkId": "",
  "color": "auto",
  "css": "",
  "default": "",
  "value": "",
  "precision": 2,
  "address": "/root",
  "preArgs": "",
  "target": "",
  "bypass": false,
  "traversing": false,
  "variables": {
    "addr": "/mus6328/control"
  },
  "tabs": [
    {
      "type": "tab",
      "id": "tab_master",
      "linkId": "",
      "label": "MASTER",
      "color": "auto",
      "css": "",
      "default": "",
      "value": "",
      "precision": 2,
      "address": "@{parent.variables.addr}/@{this.id}",
      "preArgs": "",
      "target": "",
      "bypass": true,
      "variables": "@{parent.variables}",
      "widgets": [
        {
          "type": "fader",
          "top": 80,
          "left": 40,
          "id": "fader_master_volume",
          "linkId": "",
          "width": 100,
          "height": 270,
          "label": "MASTER\nVOLUME",
          "color": "auto",
          "css": "",
          "horizontal": false,
          "alignRight": false,
          "pips": true,
          "input": true,
          "meter": false,
          "compact": false,
          "dashed": false,
          "snap": false,
          "spring": false,
          "doubleTap": false,
          "range": {
            "min": 0,
            "max": 1
          },
          "logScale": false,
          "sensitivity": 1,
          "steps": "",
          "unit": "",
          "origin": "auto",
          "default": "",
          "value": "",
          "precision": 2,
          "address": "@{parent.variables.addr}/@{this.id}",
          "preArgs": "",
          "target": "",
          "bypass": false,
          "touchAddress": "",
          "meterAddress": ""
        },
        {
          "type": "toggle",
          "top": 20,
          "left": 40,
          "id": "toggle_master_out_on",
          "linkId": "",
          "width": "auto",
          "height": "auto",
          "label": "ON/OFF",
          "color": "auto",
          "css": "",
          "doubleTap": false,
          "led": false,
          "on": 1,
          "off": 0,
          "default": "",
          "value": "",
          "precision": 0,
          "address": "@{parent.variables.addr}/@{this.id}",
          "preArgs": "",
          "target": "",
          "bypass": false
        },
        {
          "type": "toggle",
          "top": 20,
          "left": 700,
          "id": "toggle_rumble",
          "linkId": "",
          "width": "auto",
          "height": "auto",
          "label": "RUMBLE",
          "color": "auto",
          "css": "",
          "doubleTap": false,
          "led": false,
          "on": 1,
          "off": 0,
          "default": "",
          "value": "",
          "precision": 0,
          "address": "@{parent.variables.addr}/@{this.id}",
          "preArgs": "",
          "target": "",
          "bypass": false
        },
        {
          "type": "panel",
          "top": 20,
          "left": 160,
          "id": "panel_mix",
          "linkId": "",
          "width": 500,
          "height": 30,
          "label": "MIX LEVELS",
          "color": "auto",
          "css": "",
          "scroll": true,
          "border": true,
          "default": "",
          "value": "",
          "precision": 2,
          "address": "/panel_1",
          "preArgs": "",
          "target": "",
          "bypass": true,
          "variables": "@{parent.variables}",
          "widgets": [],
          "tabs": []
        },
        {
          "type": "fader",
          "top": 50,
          "left": 560,
          "id": "fader_mix_5",
          "linkId": "",
          "width": "auto",
          "height": "auto",
          "label": "MIX 5",
          "color": "auto",
          "css": "",
          "horizontal": false,
          "alignRight": false,
          "pips": true,
          "input": true,
          "meter": false,
          "compact": false,
          "dashed": false,
          "snap": false,
          "spring": false,
          "doubleTap": false,
          "range": {
            "min": 0,
            "max": 1
          },
          "logScale": false,
          "sensitivity": 1,
          "steps": "",
          "unit": "",
          "origin": "auto",
          "default": "",
          "value": "",
          "precision": 2,
          "address": "@{parent.variables.addr}/@{this.id}",
          "preArgs": "",
          "target": "",
          "bypass": false,
          "touchAddress": "",
          "meterAddress": ""
        },
        {
          "type": "fader",
          "top": 50,
          "left": 460,
          "id": "fader_mix_4",
          "linkId": "",
          "width": "auto",
          "height": "auto",
          "label": "MIX 4",
          "color": "auto",
          "css": "",
          "horizontal": false,
          "alignRight": false,
          "pips": true,
          "input": true,
          "meter": false,
          "compact": false,
          "dashed": false,
          "snap": false,
          "spring": false,
          "doubleTap": false,
          "range": {
            "min": 0,
            "max": 1
          },
          "logScale": false,
          "sensitivity": 1,
          "steps": "",
          "unit": "",
          "origin": "auto",
          "default": "",
          "value": "",
          "precision": 2,
          "address": "@{parent.variables.addr}/@{this.id}",
          "preArgs": "",
          "target": "",
          "bypass": false,
          "touchAddress": "",
          "meterAddress": ""
        },
        {
          "type": "fader",
          "top": 50,
          "left": 360,
          "id": "fader_mix_3",
          "linkId": "",
          "width": "auto",
          "height": "auto",
          "label": "MIX 3",
          "color": "auto",
          "css": "",
          "horizontal": false,
          "alignRight": false,
          "pips": true,
          "input": true,
          "meter": false,
          "compact": false,
          "dashed": false,
          "snap": false,
          "spring": false,
          "doubleTap": false,
          "range": {
            "min": 0,
            "max": 1
          },
          "logScale": false,
          "sensitivity": 1,
          "steps": "",
          "unit": "",
          "origin": "auto",
          "default": "",
          "value": "",
          "precision": 2,
          "address": "@{parent.variables.addr}/@{this.id}",
          "preArgs": "",
          "target": "",
          "bypass": false,
          "touchAddress": "",
          "meterAddress": ""
        },
        {
          "type": "fader",
          "top": 50,
          "left": 260,
          "id": "fader_mix_2",
          "linkId": "",
          "width": "auto",
          "height": "auto",
          "label": "MIX2",
          "color": "auto",
          "css": "",
          "horizontal": false,
          "alignRight": false,
          "pips": true,
          "input": true,
          "meter": false,
          "compact": false,
          "dashed": false,
          "snap": false,
          "spring": false,
          "doubleTap": false,
          "range": {
            "min": 0,
            "max": 1
          },
          "logScale": false,
          "sensitivity": 1,
          "steps": "",
          "unit": "",
          "origin": "auto",
          "default": "",
          "value": "",
          "precision": 2,
          "address": "@{parent.variables.addr}/@{this.id}",
          "preArgs": "",
          "target": "",
          "bypass": false,
          "touchAddress": "",
          "meterAddress": ""
        },
        {
          "type": "fader",
          "top": 50,
          "left": 160,
          "id": "fader_mix_1",
          "linkId": "",
          "width": "auto",
          "height": "auto",
          "label": "MIX 1",
          "color": "auto",
          "css": "",
          "horizontal": false,
          "alignRight": false,
          "pips": true,
          "input": true,
          "meter": false,
          "compact": false,
          "dashed": false,
          "snap": false,
          "spring": false,
          "doubleTap": false,
          "range": {
            "min": 0,
            "max": 1
          },
          "logScale": false,
          "sensitivity": 1,
          "steps": "",
          "unit": "",
          "origin": "auto",
          "default": "",
          "value": "",
          "precision": 2,
          "address": "@{parent.variables.addr}/@{this.id}",
          "preArgs": "",
          "target": "",
          "bypass": false,
          "touchAddress": "",
          "meterAddress": ""
        },
        {
          "type": "toggle",
          "top": 100,
          "left": 700,
          "id": "toggle_midi",
          "linkId": "",
          "width": "auto",
          "height": "auto",
          "label": "MIDI",
          "color": "auto",
          "css": "",
          "doubleTap": false,
          "led": false,
          "on": 1,
          "off": 0,
          "default": "",
          "value": "",
          "precision": 0,
          "address": "@{parent.variables.addr}/@{this.id}",
          "preArgs": "",
          "target": "",
          "bypass": false
        }
      ],
      "tabs": [],
      "scroll": true
    },
    {
      "type": "tab",
      "id": "tab_sensors",
      "linkId": "",
      "label": "SENSORS",
      "color": "auto",
      "css": "",
      "default": "",
      "value": "",
      "precision": 2,
      "address": "@{parent.variables.addr}/@{this.id}",
      "preArgs": "",
      "target": "",
      "bypass": true,
      "variables": "@{parent.variables}",
      "widgets": [
        {
          "type": "panel",
          "top": 20,
          "left": 40,
          "id": "panel_sensors",
          "linkId": "",
          "width": 300,
          "height": 30,
          "label": "SENSORS DATA FILTER",
          "color": "auto",
          "css": "",
          "scroll": true,
          "border": true,
          "default": "",
          "value": "",
          "precision": 2,
          "address": "/panel_1",
          "preArgs": "",
          "target": "",
          "bypass": true,
          "variables": "@{parent.variables}",
          "widgets": [
            {
              "type": "panel",
              "top": 80,
              "left": 440,
              "id": "panel_sensors",
              "linkId": "",
              "width": 300,
              "height": 30,
              "label": "SENSORS DATA FILTER",
              "color": "auto",
              "css": "",
              "scroll": true,
              "border": true,
              "default": "",
              "value": "",
              "precision": 2,
              "address": "/panel_1",
              "preArgs": "",
              "target": "",
              "bypass": false,
              "variables": "@{parent.variables}",
              "widgets": [],
              "tabs": []
            }
          ],
          "tabs": []
        },
        {
          "type": "fader",
          "top": 50,
          "left": 240,
          "id": "fader_sensors_filter_effect",
          "linkId": "",
          "width": "auto",
          "height": "auto",
          "label": "FILTER\nEFFECT",
          "color": "auto",
          "css": "",
          "horizontal": false,
          "alignRight": false,
          "pips": true,
          "input": true,
          "meter": false,
          "compact": false,
          "dashed": false,
          "snap": false,
          "spring": false,
          "doubleTap": false,
          "range": {
            "min": 0,
            "max": 1
          },
          "logScale": false,
          "sensitivity": 1,
          "steps": "",
          "unit": "",
          "origin": "auto",
          "default": "",
          "value": "",
          "precision": 2,
          "address": "@{parent.variables.addr}/@{this.id}",
          "preArgs": "",
          "target": "",
          "bypass": false,
          "touchAddress": "",
          "meterAddress": ""
        },
        {
          "type": "fader",
          "top": 50,
          "left": 140,
          "id": "fader_sensors_filter_tolerance",
          "linkId": "",
          "width": "auto",
          "height": "auto",
          "label": "FILTER\nTOLERANCE",
          "color": "auto",
          "css": "",
          "horizontal": false,
          "alignRight": false,
          "pips": true,
          "input": true,
          "meter": false,
          "compact": false,
          "dashed": false,
          "snap": false,
          "spring": false,
          "doubleTap": false,
          "range": {
            "min": 0,
            "max": 0.01
          },
          "logScale": false,
          "sensitivity": 1,
          "steps": "",
          "unit": "",
          "origin": "auto",
          "default": "",
          "value": "",
          "precision": 4,
          "address": "@{parent.variables.addr}/@{this.id}",
          "preArgs": "",
          "target": "",
          "bypass": false,
          "touchAddress": "",
          "meterAddress": ""
        },
        {
          "type": "fader",
          "top": 50,
          "left": 40,
          "id": "fader_sensors_filter_width",
          "linkId": "",
          "width": "auto",
          "height": "auto",
          "label": "FILTER\nWIDTH",
          "color": "auto",
          "css": "",
          "horizontal": false,
          "alignRight": false,
          "pips": true,
          "input": true,
          "meter": false,
          "compact": false,
          "dashed": false,
          "snap": false,
          "spring": false,
          "doubleTap": false,
          "range": {
            "min": 0,
            "max": 0.2
          },
          "logScale": false,
          "sensitivity": 1,
          "steps": "",
          "unit": "",
          "origin": "auto",
          "default": "",
          "value": "",
          "precision": 3,
          "address": "@{parent.variables.addr}/@{this.id}",
          "preArgs": "",
          "target": "",
          "bypass": false,
          "touchAddress": "",
          "meterAddress": ""
        },
        {
          "type": "panel",
          "top": 20,
          "left": 360,
          "id": "panel_sensors1",
          "linkId": "",
          "width": 400,
          "height": 30,
          "label": "SENSORS RANGE",
          "color": "auto",
          "css": "",
          "scroll": true,
          "border": true,
          "default": "",
          "value": "",
          "precision": 2,
          "address": "/panel_1",
          "preArgs": "",
          "target": "",
          "bypass": true,
          "variables": "@{parent.variables}",
          "widgets": [],
          "tabs": []
        },
        {
          "type": "range",
          "top": 50,
          "left": 360,
          "id": "range_sensors_ir1",
          "linkId": "",
          "width": "auto",
          "height": "auto",
          "label": "IR 1",
          "color": "auto",
          "css": "",
          "range": {
            "min": 0,
            "max": 1
          },
          "horizontal": false,
          "alignRight": false,
          "input": true,
          "compact": false,
          "pips": true,
          "snap": false,
          "spring": false,
          "logScale": false,
          "sensitivity": 1,
          "default": "",
          "value": "",
          "precision": 2,
          "address": "@{parent.variables.addr}/@{this.id}",
          "preArgs": "",
          "target": "",
          "bypass": false,
          "touchAddress": "",
          "split": [
            "@{this.address}_min",
            "@{this.address}_max"
          ]
        },
        {
          "type": "range",
          "top": 50,
          "left": 460,
          "id": "range_sensors_ir2",
          "linkId": "",
          "width": "auto",
          "height": "auto",
          "label": "IR 2",
          "color": "auto",
          "css": "",
          "range": {
            "min": 0,
            "max": 1
          },
          "horizontal": false,
          "alignRight": false,
          "input": true,
          "compact": false,
          "pips": true,
          "snap": false,
          "spring": false,
          "logScale": false,
          "sensitivity": 1,
          "default": "",
          "value": "",
          "precision": 2,
          "address": "@{parent.variables.addr}/@{this.id}",
          "preArgs": "",
          "target": "",
          "bypass": false,
          "touchAddress": "",
          "split": [
            "@{this.address}_min",
            "@{this.address}_max"
          ]
        },
        {
          "type": "range",
          "top": 50,
          "left": 560,
          "id": "range_sensors_sonar1",
          "linkId": "",
          "width": "auto",
          "height": "auto",
          "label": "SONAR 1",
          "color": "auto",
          "css": "",
          "range": {
            "min": 0,
            "max": 100
          },
          "horizontal": false,
          "alignRight": false,
          "input": true,
          "compact": false,
          "pips": true,
          "snap": false,
          "spring": false,
          "logScale": false,
          "sensitivity": 1,
          "default": "",
          "value": "",
          "precision": 1,
          "address": "@{parent.variables.addr}/@{this.id}",
          "preArgs": "",
          "target": "",
          "bypass": false,
          "touchAddress": "",
          "split": [
            "@{this.address}_min",
            "@{this.address}_max"
          ]
        },
        {
          "type": "range",
          "top": 50,
          "left": 660,
          "id": "range_sensors_sonar2",
          "linkId": "",
          "width": "auto",
          "height": "auto",
          "label": "SONAR 2",
          "color": "auto",
          "css": "",
          "range": {
            "min": 0,
            "max": 100
          },
          "horizontal": false,
          "alignRight": false,
          "input": true,
          "compact": false,
          "pips": true,
          "snap": false,
          "spring": false,
          "logScale": false,
          "sensitivity": 1,
          "default": "",
          "value": "",
          "precision": 1,
          "address": "@{parent.variables.addr}/@{this.id}",
          "preArgs": "",
          "target": "",
          "bypass": false,
          "touchAddress": "",
          "split": [
            "@{this.address}_min",
            "@{this.address}_max"
          ]
        }
      ],
      "tabs": [],
      "scroll": true
    },
    {
      "type": "tab",
      "id": "tab_audio",
      "linkId": "",
      "label": "AUDIO GEN",
      "color": "auto",
      "css": "",
      "default": "",
      "value": "",
      "precision": 2,
      "address": "@{parent.variables.addr}/@{this.id}",
      "preArgs": "",
      "target": "",
      "bypass": true,
      "variables": "@{parent.variables}",
      "widgets": [
        {
          "type": "panel",
          "top": 20,
          "left": 40,
          "id": "panel_scale",
          "linkId": "",
          "width": 300,
          "height": 30,
          "label": "NOTE SCALE",
          "color": "auto",
          "css": "",
          "scroll": true,
          "border": true,
          "default": "",
          "value": "",
          "precision": 2,
          "address": "/panel_1",
          "preArgs": "",
          "target": "",
          "bypass": true,
          "variables": "@{parent.variables}",
          "widgets": [],
          "tabs": []
        },
        {
          "type": "fader",
          "top": 50,
          "left": 40,
          "id": "fader_notes_start",
          "linkId": "",
          "width": "auto",
          "height": "auto",
          "label": "START",
          "color": "auto",
          "css": "",
          "horizontal": false,
          "alignRight": false,
          "pips": true,
          "input": true,
          "meter": false,
          "compact": false,
          "dashed": false,
          "snap": false,
          "spring": false,
          "doubleTap": false,
          "range": {
            "min": 0,
            "max": 87
          },
          "logScale": false,
          "sensitivity": 1,
          "steps": "",
          "unit": "",
          "origin": "auto",
          "default": "",
          "value": "",
          "precision": 0,
          "address": "@{parent.variables.addr}/@{this.id}",
          "preArgs": "",
          "target": "",
          "bypass": false,
          "touchAddress": "",
          "meterAddress": ""
        },
        {
          "type": "fader",
          "top": 50,
          "left": 140,
          "id": "fader_notes_num",
          "linkId": "",
          "width": "auto",
          "height": "auto",
          "label": "NUM NOTES",
          "color": "auto",
          "css": "",
          "horizontal": false,
          "alignRight": false,
          "pips": true,
          "input": true,
          "meter": false,
          "compact": false,
          "dashed": false,
          "snap": false,
          "spring": false,
          "doubleTap": false,
          "range": {
            "min": 0,
            "max": 20
          },
          "logScale": false,
          "sensitivity": 1,
          "steps": 21,
          "unit": "",
          "origin": "auto",
          "default": "",
          "value": "",
          "precision": 0,
          "address": "@{parent.variables.addr}/@{this.id}",
          "preArgs": "",
          "target": "",
          "bypass": false,
          "touchAddress": "",
          "meterAddress": ""
        },
        {
          "type": "fader",
          "top": 50,
          "left": 240,
          "id": "fader_notes_step",
          "linkId": "",
          "width": "auto",
          "height": "auto",
          "label": "NOTES STEP",
          "color": "auto",
          "css": "",
          "horizontal": false,
          "alignRight": false,
          "pips": true,
          "input": true,
          "meter": false,
          "compact": false,
          "dashed": false,
          "snap": false,
          "spring": false,
          "doubleTap": false,
          "range": {
            "min": 0,
            "max": 12
          },
          "logScale": false,
          "sensitivity": 1,
          "steps": 13,
          "unit": "",
          "origin": "auto",
          "default": "",
          "value": "",
          "precision": 0,
          "address": "@{parent.variables.addr}/@{this.id}",
          "preArgs": "",
          "target": "",
          "bypass": false,
          "touchAddress": "",
          "meterAddress": ""
        }
      ],
      "tabs": [],
      "scroll": true
    }
  ],
  "scroll": true,
  "label": false
}